Removed Pin From Net: NetName=GND Pin=J1-2
Removed Member From Class: ClassName=icl7107 Member=J1
Added Component: Designator=R12(R_SQP 10W)
Add component. Clean all parameters for all variants
Add component (AddParameter): Name = "Value"; Value = "0.1 Ohm"; VariantName = "[No Variations]"
Added Component: Designator=R13(R_SQP 10W)
Add component. Clean all parameters for all variants
Add component (AddParameter): Name = "Value"; Value = "0.1 Ohm"; VariantName = "[No Variations]"
Added Component: Designator=R14(R_SQP 10W)
Add component. Clean all parameters for all variants
Add component (AddParameter): Name = "Value"; Value = "0.1 Ohm"; VariantName = "[No Variations]"
Added Component: Designator=R15(R_SQP 10W)
Add component. Clean all parameters for all variants
Add component (AddParameter): Name = "Value"; Value = "0.1 Ohm"; VariantName = "[No Variations]"
Added Component: Designator=R16(R_SQP 10W)
Add component. Clean all parameters for all variants
Add component (AddParameter): Name = "Value"; Value = "0.1 Ohm"; VariantName = "[No Variations]"
Added Component: Designator=R17(R_SQP 10W)
Add component. Clean all parameters for all variants
Add component (AddParameter): Name = "Value"; Value = "0.1 Ohm"; VariantName = "[No Variations]"
Added Component: Designator=R18(R_SQP 10W)
Add component. Clean all parameters for all variants
Add component (AddParameter): Name = "Value"; Value = "0.1 Ohm"; VariantName = "[No Variations]"
Added Component: Designator=R19(R_SQP 10W)
Add component. Clean all parameters for all variants
Add component (AddParameter): Name = "Value"; Value = "0.1 Ohm"; VariantName = "[No Variations]"
Added Component: Designator=R20(R_SQP 10W)
Add component. Clean all parameters for all variants
Add component (AddParameter): Name = "Value"; Value = "0.1 Ohm"; VariantName = "[No Variations]"
Added Component: Designator=R21(R_SQP 10W)
Add component. Clean all parameters for all variants
Add component (AddParameter): Name = "Value"; Value = "0.1 Ohm"; VariantName = "[No Variations]"
Added Pin To Net: NetName=GND Pin=R12-2
Added Pin To Net: NetName=GND Pin=R13-2
Added Pin To Net: NetName=GND Pin=R14-2
Added Pin To Net: NetName=GND Pin=R15-2
Added Pin To Net: NetName=GND Pin=R16-2
Added Pin To Net: NetName=GND Pin=R17-2
Added Pin To Net: NetName=GND Pin=R18-2
Added Pin To Net: NetName=GND Pin=R19-2
Added Pin To Net: NetName=GND Pin=R20-2
Added Pin To Net: NetName=GND Pin=R21-2
Added Pin To Net: NetName=NetR8_1 Pin=R8-1
Added Pin To Net: NetName=NetR8_1 Pin=R12-1
Added Pin To Net: NetName=NetR8_1 Pin=R13-1
Added Pin To Net: NetName=NetR8_1 Pin=R14-1
Added Pin To Net: NetName=NetR8_1 Pin=R15-1
Added Pin To Net: NetName=NetR8_1 Pin=R16-1
Added Pin To Net: NetName=NetR8_1 Pin=R17-1
Added Pin To Net: NetName=NetR8_1 Pin=R18-1
Added Pin To Net: NetName=NetR8_1 Pin=R19-1
Added Pin To Net: NetName=NetR8_1 Pin=R20-1
Added Pin To Net: NetName=NetR8_1 Pin=R21-1
Added Net: Name=NetR8_1
Added Member To Class: ClassName=icl7107 Member=Component R12 RES-def
Added Member To Class: ClassName=icl7107 Member=Component R13 RES-def
Added Member To Class: ClassName=icl7107 Member=Component R14 RES-def
Added Member To Class: ClassName=icl7107 Member=Component R15 RES-def
Added Member To Class: ClassName=icl7107 Member=Component R16 RES-def
Added Member To Class: ClassName=icl7107 Member=Component R17 RES-def
Added Member To Class: ClassName=icl7107 Member=Component R18 RES-def
Added Member To Class: ClassName=icl7107 Member=Component R19 RES-def
Added Member To Class: ClassName=icl7107 Member=Component R20 RES-def
Added Member To Class: ClassName=icl7107 Member=Component R21 RES-def
