Change Component Description : Designator=IC1 Old Description=31?2 Digit A/D Converters New Description=31?2 Digit A/D Converters
Added Component: Designator=J2(PLS-02)
Add component. Clean all parameters for all variants
Added Component: Designator=J3(PLS-02)
Add component. Clean all parameters for all variants
Added Pin To Net: NetName=-INPUT Pin=J2-1
Added Pin To Net: NetName=+INPUT Pin=J2-2
Added Pin To Net: NetName=Measure_VCC Pin=J3-1
Added Pin To Net: NetName=GND Pin=J3-2
Added Member To Class: ClassName=icl7107 Member=Component J2 CONN_2
Added Member To Class: ClassName=icl7107 Member=Component J3 CONN_2
