Change Component Designator: OldDesignator=C? NewDesignator=C1
Change Component Designator: OldDesignator=C? NewDesignator=C2
Change Component Designator: OldDesignator=C? NewDesignator=C3
Change Component Designator: OldDesignator=C? NewDesignator=C4
Change Component Designator: OldDesignator=C? NewDesignator=C5
Change Component Designator: OldDesignator=C? NewDesignator=C6
Change Component Designator: OldDesignator=C? NewDesignator=C7
Change Component Designator: OldDesignator=C? NewDesignator=C8
Change Component Designator: OldDesignator=C? NewDesignator=C9
Change Component Designator: OldDesignator=R? NewDesignator=R1
Change Component Designator: OldDesignator=R? NewDesignator=R2
Change Component Designator: OldDesignator=R? NewDesignator=R3
Change Component Designator: OldDesignator=R? NewDesignator=R4
Change Component Designator: OldDesignator=R? NewDesignator=R5
Change Component Designator: OldDesignator=R? NewDesignator=R6
Change Component Designator: OldDesignator=R? NewDesignator=R7
Change Component Designator: OldDesignator=R? NewDesignator=R8
Change Component Designator: OldDesignator=R? NewDesignator=R9
Change Component Designator: OldDesignator=R? NewDesignator=R10
Change Component Designator: OldDesignator=R? NewDesignator=R11
Change Component Designator: OldDesignator=U? NewDesignator=U1
Change Component Designator: OldDesignator=U? NewDesignator=U2
Change Component Designator: OldDesignator=U? NewDesignator=U3
Change Component Designator: OldDesignator=U? NewDesignator=U4
Change Net Name : Old Net Name=NetC?_1 New Net Name=NetC7_1
Change Net Name : Old Net Name=NetC?_2 New Net Name=NetC7_2
Change Net Name : Old Net Name=NetR?_1 New Net Name=NetR6_1
Change Net Name : Old Net Name=NetR?_2 New Net Name=NetR5_2
Added Pin To Net: NetName=NetC5_1 Pin=C5-1
Added Pin To Net: NetName=NetC5_1 Pin=IC1-34
Added Net: Name=NetC5_1
Added Pin To Net: NetName=NetC5_2 Pin=C5-2
Added Pin To Net: NetName=NetC5_2 Pin=IC1-33
Added Net: Name=NetC5_2
Added Pin To Net: NetName=NetC6_1 Pin=C6-1
Added Pin To Net: NetName=NetC6_1 Pin=C8-1
Added Pin To Net: NetName=NetC6_1 Pin=R4-1
Added Net: Name=NetC6_1
Added Pin To Net: NetName=NetC6_2 Pin=C6-2
Added Pin To Net: NetName=NetC6_2 Pin=IC1-29
Added Net: Name=NetC6_2
Added Pin To Net: NetName=NetC8_2 Pin=C8-2
Added Pin To Net: NetName=NetC8_2 Pin=IC1-27
Added Net: Name=NetC8_2
Added Pin To Net: NetName=NetC9_1 Pin=C9-1
Added Pin To Net: NetName=NetC9_1 Pin=IC1-31
Added Pin To Net: NetName=NetC9_1 Pin=R9-1
Added Pin To Net: NetName=NetC9_1 Pin=R10-1
Added Net: Name=NetC9_1
Added Pin To Net: NetName=NetC9_2 Pin=C9-2
Added Pin To Net: NetName=NetC9_2 Pin=IC1-30
Added Pin To Net: NetName=NetC9_2 Pin=R9-2
Added Net: Name=NetC9_2
Added Pin To Net: NetName=NetR1_1 Pin=R1-1
Added Pin To Net: NetName=NetR1_1 Pin=R2-2
Added Pin To Net: NetName=NetR1_1 Pin=U3-1
Added Net: Name=NetR1_1
Added Pin To Net: NetName=NetR7_1 Pin=R7-1
Added Pin To Net: NetName=NetR7_1 Pin=R8-3
Added Net: Name=NetR7_1
Added Pin To Net: NetName=NetR10_2 Pin=R10-2
Added Pin To Net: NetName=NetR10_2 Pin=R11-1
Added Net: Name=NetR10_2
Added Member To Class: ClassName=icl7107 Member=Component C2 ECA-1VM101
Added Member To Class: ClassName=icl7107 Member=Component C3 ECA-1VM101
Added Member To Class: ClassName=icl7107 Member=Component C4 ECA-1VM101
Added Member To Class: ClassName=icl7107 Member=Component C5 CAP_0805
Added Member To Class: ClassName=icl7107 Member=Component C6 CAP_0805
Added Member To Class: ClassName=icl7107 Member=Component C7 CAP_0805
Added Member To Class: ClassName=icl7107 Member=Component C8 CAP-def
Added Member To Class: ClassName=icl7107 Member=Component C9 CAP_0805
Added Member To Class: ClassName=icl7107 Member=Component R2 CRCW080533K0JNEA
Added Member To Class: ClassName=icl7107 Member=Component R3 RES-0805
Added Member To Class: ClassName=icl7107 Member=Component R4 RES-0805
Added Member To Class: ClassName=icl7107 Member=Component R5 RES-0805
Added Member To Class: ClassName=icl7107 Member=Component R6 RES-0805
Added Member To Class: ClassName=icl7107 Member=Component R7 RES-0805
Added Member To Class: ClassName=icl7107 Member=Component R8 3296W-1-202LF
Added Member To Class: ClassName=icl7107 Member=Component R9 RES-0805
Added Member To Class: ClassName=icl7107 Member=Component R10 RES-0805
Added Member To Class: ClassName=icl7107 Member=Component R11 RES-0805
Added Member To Class: ClassName=icl7107 Member=Component U2 LM7905CT
Added Member To Class: ClassName=icl7107 Member=Component U3 LM317AEMP/NOPB
Added Member To Class: ClassName=icl7107 Member=Component U4 TL431CZ-AP
